…
I performed an inner_join because I only wanted to look at the colleges that were in both datasets. I did this in order to keep my dataset tidy and leave all unmatched rows out. By performing this join, 100 observations were dropped from the “SchoolRankings” dataset and 219 observations were dropped from the “salaries_by_college_type” dataset. The datasets were joined by Institution, so any institution that was in one dataset but not the other was dropped. This left 50 institutions that were common to both datasets and a total of 12 columns. Because each dataset was reduced significantly, there could be potential problems with the remaining 50 institutions. It is no longer as representative of the original data. There are 30 Liberal Arts schools, 8 Ivy Leagues, 8 State schools, and 4 Engineering schools. This could pose potential problems with summary statistics or other analyses because some schools are so underrepresented.

3. Wrangling

fulldata %>% filter(`Mid-Career_10_Percentile_Salary` != "N/A") %>% 
    filter(`Mid-Career_90_Percentile_Salary` != "N/A")

## # A tibble: 25 x 12
##    Institution School_Type Starting_Median… `Mid-Career_Med… `Mid-Career_10_…
##    <chr>       <chr>                  <dbl>            <dbl>            <dbl>
##  1 Georgia In… Engineering            58300           106000            67200
##  2 Colorado S… Engineering            58100           106000            62200
##  3 Stevens In… Engineering            60600           105000            68700
##  4 Bucknell U… Liberal Ar…            54100           110000            62800
##  5 Colgate Un… Liberal Ar…            52800           108000            60000
##  6 Lafayette … Liberal Ar…            53900           107000            70600
##  7 University… Liberal Ar…            48600            94600            44500
##  8 St. Olaf C… Liberal Ar…            45300            86200            41300
##  9 Smith Coll… Liberal Ar…            44000            83900            45100
## 10 Dartmouth … Ivy League             58000           134000            63100
## # … with 15 more rows, and 7 more variables:
## #   `Mid-Career_25_Percentile_Salary` <dbl>,
## #   `Mid-Career_75_Percentile_Salary` <dbl>,
## #   `Mid-Career_90_Percentile_Salary` <dbl>, `AR%` <dbl>, Location <chr>,
## #   `Price$` <dbl>, SAT_Range <chr>
…
library("tidyverse")
install.packages("GGally")
library("GGally")
library(cluster)
library(dplyr)
library(ggplot2)

# K-means Clustering

fulldata2 <- fulldata %>% dplyr::select(-Institution, -School_Type, 
    -Location, -`Mid-Career_10_Percentile_Salary`, -`Mid-Career_90_Percentile_Salary`)
fulldata2

## # A tibble: 50 x 7
##    Starting_Median… `Mid-Career_Med… `Mid-Career_25_… `Mid-Career_75_… `AR%`
##               <dbl>            <dbl>            <dbl>            <dbl> <dbl>
##  1            71800           122000            96000           180000    15
##  2            58300           106000            85200           137000    23
##  3            58100           106000            87900           142000    56
##  4            60600           105000            81900           138000    44
##  5            54100           110000            80600           156000    31
##  6            52800           108000            76700           167000    28
##  7            54500           107000            84900           162000    13
##  8            53900           107000            79300           144000    31
##  9            48100           107000            74600           146000    14
## 10            50200           106000            65600           143000    40
## # … with 40 more rows, and 2 more variables: `Price$` <dbl>, SAT_Range <chr>
…
